…
``` r
zip_observations = final_data |>
  group_by(zip_code) |>
  summarise(Observations = n()) |>
  arrange(Observations)


missing_observations = zip_observations |>
  filter(Observations < 116)


print(missing_observations)
```

    ## # A tibble: 100 × 2
    ##    zip_code Observations
    ##       <int>        <int>
    ##  1    10453            1
    ##  2    10470            1
    ##  3    11366            1
    ##  4    11369            1
    ##  5    11426            1
    ##  6    11693            1
    ##  7    10162            2
    ##  8    10303            2
    ##  9    10459            2
    ## 10    10460            2
    ## # ℹ 90 more rows
…
